=6092== I   refs:      134,065,490,167
==6092== I1  misses:              1,687
==6092== LLi misses:              1,259
==6092== I1  miss rate:            0.00%
==6092== LLi miss rate:            0.00%
==6092== 
==6092== D   refs:       65,878,774,230  (58,798,838,105 rd   + 7,079,936,125 wr)
==6092== D1  misses:         15,249,994  (    14,808,439 rd   +       441,555 wr)
==6092== LLd misses:              8,557  (         4,004 rd   +         4,553 wr)
==6092== D1  miss rate:             0.0% (           0.0%     +           0.0%  )
==6092== LLd miss rate:             0.0% (           0.0%     +           0.0%  )
==6092== 
==6092== LL refs:            15,251,681  (    14,810,126 rd   +       441,555 wr)
==6092== LL misses:               9,816  (         5,263 rd   +         4,553 wr)
==6092== LL miss rate:              0.0% (           0.0%     +           0.0%  )
